API RESPONSES+
========
Registration
========
{
"metadata": {
"message": "You have successfully registered!",
"code": 2001
},
"results": {
"email": "kishor+expert2@atlogys.com",
"verification_code": "c19b5ed6-5883-4a6c-bf32-03f7df096516"
}
}
API RESPONSES+
========
Login API
========
{
"results": {
"display_name": null,
"profile_photo": null,
"email": "kishor+expert2@atlogys.com",
"phone_number": "",
"toc_and_privacy_policy_accepted": false,
"id": 17,
"is_superuser": false,
"country_code": 1,
"name": "",
"is_phone_number_verified": false,
"token": "eyJ0aW1lc3RhbXAiOjE0OTE5ODI5NjAuOTgzNDI4LCJ1c2VyX2lkIjoxNywiaXBfYWRkcmVzcyI6IjYxLjI0Ni40Ny45MyJ9:1cyCvI:PI6lSU6Tjd-qVjcrN464IGP19Zk",
"is_profile_complete": false
}
}
API RESPONSES+
========
Add RSS feed
========
{
"results": {
"id": 10,
"message": "Successfull"
}
}
API RESPONSES+
========
Add RSS feed
========
{
"results": {
"id": 11,
"message": "Successfull"
}
}
API RESPONSES+
========
Get Social Link
========
{
"metadata": {
"count": 2,
"next": null,
"previous": null
},
"results": [
{
"id": 10,
"created_timestamp": "2017-04-12T07:42:45.804462Z",
"modified_timestamp": "2017-04-12T07:42:45.804496Z",
"feed_type": 4,
"feed_sub_type": 4,
"detail": "https://staff.tumblr.com/rss/",
"display_name": "Tumblr Staff",
"is_deleted": false,
"account": 10
},
{
"id": 11,
"created_timestamp": "2017-04-12T07:42:46.688400Z",
"modified_timestamp": "2017-04-12T07:42:46.688434Z",
"feed_type": 4,
"feed_sub_type": 4,
"detail": "http://feeds.feedburner.com/ndtvnews-world-news",
"display_name": "NDTV News  - World-news",
"is_deleted": false,
"account": 11
}
]
}
API RESPONSES+
========
FeedListing API
========
{
"metadata": {
"count": 40,
"next": "http://api.qa.experchat.com/v1/social/get_feeds/1491982964/?offset=10&limit=10",
"previous": null,
"timestamp": 1491982964,
"offset": 0
},
"results": [
{
"social_link_id": 11,
"timestamp": "2017-04-12T06:55:36Z",
"description": "Elizabeth Starrels sat in the examining chair of a Washington ear, nose and throat specialist in October 2012, weeping in frustration and pain.",
"id": "rs_11_1680358_17",
"image": "",
"content": {
"published_parsed": [
2017,
4,
12,
6,
55,
36,
2,
102,
0
],
"id": "1680358",
"guidislink": false,
"summary_detail": {
"language": null,
"value": "Elizabeth Starrels sat in the examining chair of a Washington ear, nose and throat specialist in October 2012, weeping in frustration and pain.",
"type": "text/html",
"base": ""
},
"published": "Wed, 12 Apr 2017 12:25:36 +0530",
"title_detail": {
"language": null,
"value": "A Mouth So Sore She Couldn't Eat, She Lost 20 Pounds",
"type": "text/plain",
"base": ""
},
"title": "A Mouth So Sore She Couldn't Eat, She Lost 20 Pounds",
"summary": "Elizabeth Starrels sat in the examining chair of a Washington ear, nose and throat specialist in October 2012, weeping in frustration and pain.",
"storyimage": "https://i.ndtvimg.com/i/2017-04/elizabeth-starrels-wp_240x180_41491980113.jpg",
"video_id": "",
"link": "http://www.ndtv.com/health/a-mouth-so-sore-she-couldnt-eat-1680358",
"links": [
{
"href": "http://www.ndtv.com/health/a-mouth-so-sore-she-couldnt-eat-1680358",
"rel": "alternate",
"type": "text/html"
}
],
"source": {
"title": "The Washington Post"
},
"tags": [
{
"scheme": null,
"label": null,
"term": "Health"
}
],
"fullimage": "https://i.ndtvimg.com/i/2017-04/elizabeth-starrels-wp_650x400_41491980122.jpg",
"updatedat": "April 12, 2017 12:25 PM"
},
"title": "A Mouth So Sore She Couldn't Eat, She Lost 20 Pounds",
"content_type": "4"
},
{
"social_link_id": 11,
"timestamp": "2017-04-12T06:23:20Z",
"description": "In a gruesome incident, a 15-year-old boy's sexual organ was chopped off and eyes pricked by the family members of a girl who suspected him of having an illicit relationship with her in Pakistan's...",
"id": "rs_11_1680339_17",
"image": "",
"content": {
"published_parsed": [
2017,
4,
12,
6,
23,
20,
2,
102,
0
],
"id": "1680339",
"guidislink": false,
"summary_detail": {
"language": null,
"value": "In a gruesome incident, a 15-year-old boy's sexual organ was chopped off and eyes pricked by the family members of a girl who suspected him of having an illicit relationship with her in Pakistan's...",
"type": "text/html",
"base": ""
},
"published": "Wed, 12 Apr 2017 11:53:20 +0530",
"title_detail": {
"language": null,
"value": "Teen's Sexual Organ Chopped Off, Eyes Pricked In Pak For 'Honour'",
"type": "text/plain",
"base": ""
},
"title": "Teen's Sexual Organ Chopped Off, Eyes Pricked In Pak For 'Honour'",
"summary": "In a gruesome incident, a 15-year-old boy's sexual organ was chopped off and eyes pricked by the family members of a girl who suspected him of having an illicit relationship with her in Pakistan's...",
"storyimage": "https://i.ndtvimg.com/i/2017-04/crime-scene-istock_240x180_61491978043.jpg",
"video_id": "",
"link": "http://www.ndtv.com/world-news/teens-sexual-organ-chopped-off-eyes-pricked-in-pak-for-honour-1680339",
"links": [
{
"href": "http://www.ndtv.com/world-news/teens-sexual-organ-chopped-off-eyes-pricked-in-pak-for-honour-1680339",
"rel": "alternate",
"type": "text/html"
}
],
"source": {
"title": "PTI"
},
"tags": [
{
"scheme": null,
"label": null,
"term": "World"
}
],
"fullimage": "https://i.ndtvimg.com/i/2017-04/crime-scene-istock_650x400_61491978029.jpg",
"updatedat": "April 12, 2017 11:53 AM"
},
"title": "Teen's Sexual Organ Chopped Off, Eyes Pricked In Pak For 'Honour'",
"content_type": "4"
},
{
"social_link_id": 11,
"timestamp": "2017-04-12T06:22:10Z",
"description": "Voters in Turkey will go to the polls on April 16 to decide on the referendum that would grant President Recep Tayyip Erdogan expanded powers in a referendum. With Erdogan supporters seeing a chance...",
"id": "rs_11_1680337_17",
"image": "",
"content": {
"published_parsed": [
2017,
4,
12,
6,
22,
10,
2,
102,
0
],
"id": "1680337",
"guidislink": false,
"summary_detail": {
"language": null,
"value": "Voters in Turkey will go to the polls on April 16 to decide on the referendum that would grant President Recep Tayyip Erdogan expanded powers in a referendum. With Erdogan supporters seeing a chance...",
"type": "text/html",
"base": ""
},
"published": "Wed, 12 Apr 2017 11:52:10 +0530",
"title_detail": {
"language": null,
"value": "Turkey Under Recep Tayyip Erdogan: 10 Key Developments",
"type": "text/plain",
"base": ""
},
"title": "Turkey Under Recep Tayyip Erdogan: 10 Key Developments",
"summary": "Voters in Turkey will go to the polls on April 16 to decide on the referendum that would grant President Recep Tayyip Erdogan expanded powers in a referendum. With Erdogan supporters seeing a chance...",
"storyimage": "https://i.ndtvimg.com/i/2017-04/recep-tayyip-erdogan-afp_240x180_41491981183.jpg",
"video_id": "",
"link": "http://www.ndtv.com/world-news/turkey-under-recep-tayyip-erdogan-10-key-developments-1680337",
"links": [
{
"href": "http://www.ndtv.com/world-news/turkey-under-recep-tayyip-erdogan-10-key-developments-1680337",
"rel": "alternate",
"type": "text/html"
}
],
"source": {
"title": "NDTV"
},
"tags": [
{
"scheme": null,
"label": null,
"term": "World"
}
],
"fullimage": "https://i.ndtvimg.com/i/2017-04/recep-tayyip-erdogan-afp_650x400_61491981164.jpg",
"updatedat": "April 12, 2017 11:52 AM"
},
"title": "Turkey Under Recep Tayyip Erdogan: 10 Key Developments",
"content_type": "4"
},
{
"social_link_id": 11,
"timestamp": "2017-04-12T05:38:55Z",
"description": "Analysis of ancient penguin guano has revealed that volcanic eruptions, not climate change, almost wiped out an Antarctic sea bird colony three times, researchers have found.",
"id": "rs_11_1680315_17",
"image": "",
"content": {
"published_parsed": [
2017,
4,
12,
5,
38,
55,
2,
102,
0
],
"id": "1680315",
"guidislink": false,
"summary_detail": {
"language": null,
"value": "Analysis of ancient penguin guano has revealed that volcanic eruptions, not climate change, almost wiped out an Antarctic sea bird colony three times, researchers have found.",
"type": "text/html",
"base": ""
},
"published": "Wed, 12 Apr 2017 11:08:55 +0530",
"title_detail": {
"language": null,
"value": "Ancient Poo Shows Antarctic Penguins' Volcanic Past",
"type": "text/plain",
"base": ""
},
"title": "Ancient Poo Shows Antarctic Penguins' Volcanic Past",
"summary": "Analysis of ancient penguin guano has revealed that volcanic eruptions, not climate change, almost wiped out an Antarctic sea bird colony three times, researchers have found.",
"storyimage": "http://i.ndtvimg.com/i/2016-12/penguins_240x180_51481162605.jpg",
"video_id": "",
"link": "http://www.ndtv.com/world-news/ancient-poo-shows-antarctic-penguins-volcanic-past-1680315",
"links": [
{
"href": "http://www.ndtv.com/world-news/ancient-poo-shows-antarctic-penguins-volcanic-past-1680315",
"rel": "alternate",
"type": "text/html"
}
],
"source": {
"title": "AFP"
},
"tags": [
{
"scheme": null,
"label": null,
"term": "World"
}
],
"fullimage": "http://i.ndtvimg.com/i/2016-12/penguins_650x400_41481162626.jpg",
"updatedat": "April 12, 2017 11:08 AM"
},
"title": "Ancient Poo Shows Antarctic Penguins' Volcanic Past",
"content_type": "4"
},
{
"social_link_id": 11,
"timestamp": "2017-04-12T05:15:00Z",
"description": "Egyptian Eman Ahmed Abdulati, once touted to be the heaviest woman in the world at 500 kg, is on the fast track to a quality life. She has lost 242 kg since her arrival in Mumbai for a life-changing...",
"id": "rs_11_1680306_17",
"image": "",
"content": {
"published_parsed": [
2017,
4,
12,
5,
15,
0,
2,
102,
0
],
"id": "1680306",
"guidislink": false,
"summary_detail": {
"language": null,
"value": "Egyptian Eman Ahmed Abdulati, once touted to be the heaviest woman in the world at 500 kg, is on the fast track to a quality life. She has lost 242 kg since her arrival in Mumbai for a life-changing...",
"type": "text/html",
"base": ""
},
"published": "Wed, 12 Apr 2017 10:45:00 +0530",
"title_detail": {
"language": null,
"value": "Formerly 'World's Heaviest Woman', Eman Ahmed Is Now Half Her Size",
"type": "text/plain",
"base": ""
},
"title": "Formerly 'World's Heaviest Woman', Eman Ahmed Is Now Half Her Size",
"summary": "Egyptian Eman Ahmed Abdulati, once touted to be the heaviest woman in the world at 500 kg, is on the fast track to a quality life. She has lost 242 kg since her arrival in Mumbai for a life-changing...",
"storyimage": "https://i.ndtvimg.com/i/2017-04/eman-ahmed_240x180_71491974036.jpg",
"video_id": "",
"link": "http://www.ndtv.com/world-news/formerly-worlds-heaviest-woman-eman-ahmed-is-now-half-her-size-1680306",
"links": [
{
"href": "http://www.ndtv.com/world-news/formerly-worlds-heaviest-woman-eman-ahmed-is-now-half-her-size-1680306",
"rel": "alternate",
"type": "text/html"
}
],
"source": {
"title": "Mid-Day"
},
"tags": [
{
"scheme": null,
"label": null,
"term": "World"
}
],
"fullimage": "https://i.ndtvimg.com/i/2017-04/eman-ahmed_650x400_51491974016.jpg",
"updatedat": "April 12, 2017 10:45 AM"
},
"title": "Formerly 'World's Heaviest Woman', Eman Ahmed Is Now Half Her Size",
"content_type": "4"
},
{
"social_link_id": 11,
"timestamp": "2017-04-12T03:44:49Z",
"description": "North Korean state media warned on Tuesday of a nuclear attack on the United States at any sign of American aggression as a U.S. Navy strike group steamed toward the western Pacific.",
"id": "rs_11_1680261_17",
"image": "",
"content": {
"published_parsed": [
2017,
4,
12,
3,
44,
49,
2,
102,
0
],
"id": "1680261",
"guidislink": false,
"summary_detail": {
"language": null,
"value": "North Korean state media warned on Tuesday of a nuclear attack on the United States at any sign of American aggression as a U.S. Navy strike group steamed toward the western Pacific.",
"type": "text/html",
"base": ""
},
"published": "Wed, 12 Apr 2017 09:14:49 +0530",
"title_detail": {
"language": null,
"value": "North Korean Media Warns Of Nuclear Attack On US If Provoked",
"type": "text/plain",
"base": ""
},
"title": "North Korean Media Warns Of Nuclear Attack On US If Provoked",
"summary": "North Korean state media warned on Tuesday of a nuclear attack on the United States at any sign of American aggression as a U.S. Navy strike group steamed toward the western Pacific.",
"storyimage": "http://i.ndtvimg.com/i/2016-09/kim-jong-un-reuters_240x180_81473823818.jpg",
"video_id": "",
"link": "http://www.ndtv.com/world-news/north-korea-warns-of-nuclear-strike-if-provoked-1680261",
"links": [
{
"href": "http://www.ndtv.com/world-news/north-korea-warns-of-nuclear-strike-if-provoked-1680261",
"rel": "alternate",
"type": "text/html"
}
],
"source": {
"title": "Reuters"
},
"tags": [
{
"scheme": null,
"label": null,
"term": "World"
}
],
"fullimage": "http://i.ndtvimg.com/i/2016-09/kim-jong-un-reuters_650x400_51473823833.jpg",
"updatedat": "April 12, 2017 09:14 AM"
},
"title": "North Korean Media Warns Of Nuclear Attack On US If Provoked",
"content_type": "4"
},
{
"social_link_id": 11,
"timestamp": "2017-04-12T02:57:19Z",
"description": "The White House press secretary had criticized Syrian President Bashar al-Assad's alleged use of chemical weapons, saying that even Adolf Hitler - who used gas chambers to kill millions of Jews - did...",
"id": "rs_11_1680253_17",
"image": "",
"content": {
"published_parsed": [
2017,
4,
12,
2,
57,
19,
2,
102,
0
],
"id": "1680253",
"guidislink": false,
"summary_detail": {
"language": null,
"value": "The White House press secretary had criticized Syrian President Bashar al-Assad's alleged use of chemical weapons, saying that even Adolf Hitler - who used gas chambers to kill millions of Jews - did...",
"type": "text/html",
"base": ""
},
"published": "Wed, 12 Apr 2017 08:27:19 +0530",
"title_detail": {
"language": null,
"value": "Trump Aide Apologises For Saying Hitler Didn't Use Chemical Weapons",
"type": "text/plain",
"base": ""
},
"title": "Trump Aide Apologises For Saying Hitler Didn't Use Chemical Weapons",
"summary": "The White House press secretary had criticized Syrian President Bashar al-Assad's alleged use of chemical weapons, saying that even Adolf Hitler - who used gas chambers to kill millions of Jews - did...",
"storyimage": "https://i.ndtvimg.com/i/2017-04/sean-spicer_240x180_81491965599.jpg",
"video_id": "",
"link": "http://www.ndtv.com/world-news/sean-spicer-apologizes-after-receiving-sharp-criticism-for-saying-adolf-hitler-didnt-use-chemical-we-1680253",
"links": [
{
"href": "http://www.ndtv.com/world-news/sean-spicer-apologizes-after-receiving-sharp-criticism-for-saying-adolf-hitler-didnt-use-chemical-we-1680253",
"rel": "alternate",
"type": "text/html"
}
],
"source": {
"title": "The Washington Post"
},
"tags": [
{
"scheme": null,
"label": null,
"term": "World"
}
],
"fullimage": "https://i.ndtvimg.com/i/2017-04/sean-spicer_650x400_61491965621.jpg",
"updatedat": "April 12, 2017 08:27 AM"
},
"title": "Trump Aide Apologises For Saying Hitler Didn't Use Chemical Weapons",
"content_type": "4"
},
{
"social_link_id": 11,
"timestamp": "2017-04-12T02:38:40Z",
"description": "After two days of conflicting explanations, falling stock prices and worldwide outrage, United Airlines entered full mea culpa mode Tuesday, with its chief executive apologizing for the \"horrific...",
"id": "rs_11_1680250_17",
"image": "",
"content": {
"published_parsed": [
2017,
4,
12,
2,
38,
40,
2,
102,
0
],
"id": "1680250",
"guidislink": false,
"summary_detail": {
"language": null,
"value": "After two days of conflicting explanations, falling stock prices and worldwide outrage, United Airlines entered full mea culpa mode Tuesday, with its chief executive apologizing for the \"horrific...",
"type": "text/html",
"base": ""
},
"published": "Wed, 12 Apr 2017 08:08:40 +0530",
"title_detail": {
"language": null,
"value": "United CEO Apologises, Orders Review After Passenger Was Dragged",
"type": "text/plain",
"base": ""
},
"title": "United CEO Apologises, Orders Review After Passenger Was Dragged",
"summary": "After two days of conflicting explanations, falling stock prices and worldwide outrage, United Airlines entered full mea culpa mode Tuesday, with its chief executive apologizing for the \"horrific...",
"storyimage": "http://i.ndtvimg.com/i/2017-04/united-airlines-doctor-dragged_240x180_61491849067.jpg",
"video_id": "",
"link": "http://www.ndtv.com/world-news/united-ceo-apologizes-for-horrific-event-promises-review-of-policies-1680250",
"links": [
{
"href": "http://www.ndtv.com/world-news/united-ceo-apologizes-for-horrific-event-promises-review-of-policies-1680250",
"rel": "alternate",
"type": "text/html"
}
],
"source": {
"title": "The Washington Post"
},
"tags": [
{
"scheme": null,
"label": null,
"term": "World"
}
],
"fullimage": "http://i.ndtvimg.com/i/2017-04/united-airlines-doctor-dragged_650x400_41491849026.jpg",
"updatedat": "April 12, 2017 08:08 AM"
},
"title": "United CEO Apologises, Orders Review After Passenger Was Dragged",
"content_type": "4"
},
{
"social_link_id": 11,
"timestamp": "2017-04-12T02:27:53Z",
"description": "Adolf Hitler gassed and killed six million Jews during World War II -- a genocide that makes his reluctance to use sarin against his military adversaries an enduring mystery.",
"id": "rs_11_1680248_17",
"image": "",
"content": {
"published_parsed": [
2017,
4,
12,
2,
27,
53,
2,
102,
0
],
"id": "1680248",
"guidislink": false,
"summary_detail": {
"language": null,
"value": "Adolf Hitler gassed and killed six million Jews during World War II -- a genocide that makes his reluctance to use sarin against his military adversaries an enduring mystery.",
"type": "text/html",
"base": ""
},
"published": "Wed, 12 Apr 2017 07:57:53 +0530",
"title_detail": {
"language": null,
"value": "Why Hitler Gassed Jews But Refused To Use Sarin Against Military",
"type": "text/plain",
"base": ""
},
"title": "Why Hitler Gassed Jews But Refused To Use Sarin Against Military",
"summary": "Adolf Hitler gassed and killed six million Jews during World War II -- a genocide that makes his reluctance to use sarin against his military adversaries an enduring mystery.",
"storyimage": "http://i.ndtvimg.com/i/2015-04/adolf-hitler_240x180_51430288796.jpg",
"video_id": "",
"link": "http://www.ndtv.com/world-news/hitler-gassed-jews-during-wwii-but-refused-to-use-sarin-against-military-the-mystery-is-why-1680248",
"links": [
{
"href": "http://www.ndtv.com/world-news/hitler-gassed-jews-during-wwii-but-refused-to-use-sarin-against-military-the-mystery-is-why-1680248",
"rel": "alternate",
"type": "text/html"
}
],
"source": {
"title": "The Washington Post"
},
"tags": [
{
"scheme": null,
"label": null,
"term": "World"
}
],
"fullimage": "http://i.ndtvimg.com/i/2015-04/adolf-hitler_650x400_81430288813.jpg",
"updatedat": "April 12, 2017 07:57 AM"
},
"title": "Why Hitler Gassed Jews But Refused To Use Sarin Against Military",
"content_type": "4"
},
{
"social_link_id": 11,
"timestamp": "2017-04-12T01:03:55Z",
"description": "White House press secretary Sean Spicer apologised Tuesday for \"insensitive\" remarks in which he seemed to favorably compare Adolf Hitler's actions during the Holocaust to atrocities carried out now...",
"id": "rs_11_1680247_17",
"image": "",
"content": {
"published_parsed": [
2017,
4,
12,
1,
3,
55,
2,
102,
0
],
"id": "1680247",
"guidislink": false,
"summary_detail": {
"language": null,
"value": "White House press secretary Sean Spicer apologised Tuesday for \"insensitive\" remarks in which he seemed to favorably compare Adolf Hitler's actions during the Holocaust to atrocities carried out now...",
"type": "text/html",
"base": ""
},
"published": "Wed, 12 Apr 2017 06:33:55 +0530",
"title_detail": {
"language": null,
"value": "Sean Spicer Apologises For 'Insensitive' Hitler Reference",
"type": "text/plain",
"base": ""
},
"title": "Sean Spicer Apologises For 'Insensitive' Hitler Reference",
"summary": "White House press secretary Sean Spicer apologised Tuesday for \"insensitive\" remarks in which he seemed to favorably compare Adolf Hitler's actions during the Holocaust to atrocities carried out now...",
"storyimage": "http://i.ndtvimg.com/i/2017-02/white-house-spokesman-sean-spicer-reuters_240x180_81486441437.jpg",
"video_id": "",
"link": "http://www.ndtv.com/world-news/sean-spicer-apologises-for-insensitive-hitler-reference-1680247",
"links": [
{
"href": "http://www.ndtv.com/world-news/sean-spicer-apologises-for-insensitive-hitler-reference-1680247",
"rel": "alternate",
"type": "text/html"
}
],
"source": {
"title": "AFP"
},
"tags": [
{
"scheme": null,
"label": null,
"term": "World"
}
],
"fullimage": "http://i.ndtvimg.com/i/2017-02/white-house-spokesman-sean-spicer-reuters_650x400_71486441458.jpg",
"updatedat": "April 12, 2017 06:33 AM"
},
"title": "Sean Spicer Apologises For 'Insensitive' Hitler Reference",
"content_type": "4"
}
]
}
API RESPONSES+
========
Publish Content API
========
{
"results": {
"id": 21,
"owner": {
"id": 17,
"display_name": null,
"profile_photo": null,
"expert_uid": null,
"avg_rating": "0.00",
"num_rating": 0
},
"tags": [
],
"likes": 0,
"liked_by_current_user": false,
"saved_by_current_user": false,
"description_text": "Elizabeth Starrels sat in the examining chair of a Washington ear, nose and throat specialist in October 2012, weeping in frustration and pain.",
"description_image": "",
"content": {
"published_parsed": [
2017,
4,
12,
6,
55,
36,
2,
102,
0
],
"link": "http://www.ndtv.com/health/a-mouth-so-sore-she-couldnt-eat-1680358",
"guidislink": false,
"updatedat": "April 12, 2017 12:25 PM",
"title": "A Mouth So Sore She Couldn't Eat, She Lost 20 Pounds",
"title_detail": {
"type": "text/plain",
"value": "A Mouth So Sore She Couldn't Eat, She Lost 20 Pounds",
"language": null,
"base": ""
},
"published": "Wed, 12 Apr 2017 12:25:36 +0530",
"summary": "Elizabeth Starrels sat in the examining chair of a Washington ear, nose and throat specialist in October 2012, weeping in frustration and pain.",
"storyimage": "https://i.ndtvimg.com/i/2017-04/elizabeth-starrels-wp_240x180_41491980113.jpg",
"video_id": "",
"id": "1680358",
"links": [
{
"type": "text/html",
"href": "http://www.ndtv.com/health/a-mouth-so-sore-she-couldnt-eat-1680358",
"rel": "alternate"
}
],
"source": {
"title": "The Washington Post"
},
"tags": [
{
"scheme": null,
"term": "Health",
"label": null
}
],
"fullimage": "https://i.ndtvimg.com/i/2017-04/elizabeth-starrels-wp_650x400_41491980122.jpg",
"summary_detail": {
"type": "text/html",
"value": "Elizabeth Starrels sat in the examining chair of a Washington ear, nose and throat specialist in October 2012, weeping in frustration and pain.",
"language": null,
"base": ""
}
},
"created_timestamp": "2017-04-12T07:42:53.085486Z",
"modified_timestamp": "2017-04-12T07:42:53.085529Z",
"content_id": "rs_11_1680358_17",
"title": "A Mouth So Sore She Couldn't Eat, She Lost 20 Pounds",
"content_type": 4,
"image": "",
"description": "Elizabeth Starrels sat in the examining chair of a Washington ear, nose and throat specialist in October 2012, weeping in frustration and pain.",
"timestamp": "2017-04-12T06:55:36Z",
"is_deleted": false
}
}
API RESPONSES+
========
Publish Content API
========
{
"results": {
"id": 22,
"owner": {
"id": 17,
"display_name": null,
"profile_photo": null,
"expert_uid": null,
"avg_rating": "0.00",
"num_rating": 0
},
"tags": [
],
"likes": 0,
"liked_by_current_user": false,
"saved_by_current_user": false,
"description_text": "In a gruesome incident, a 15-year-old boy's sexual organ was chopped off and eyes pricked by the family members of a girl who suspected him of having an illicit relationship with her in Pakistan's...",
"description_image": "",
"content": {
"published_parsed": [
2017,
4,
12,
6,
23,
20,
2,
102,
0
],
"link": "http://www.ndtv.com/world-news/teens-sexual-organ-chopped-off-eyes-pricked-in-pak-for-honour-1680339",
"guidislink": false,
"updatedat": "April 12, 2017 11:53 AM",
"title": "Teen's Sexual Organ Chopped Off, Eyes Pricked In Pak For 'Honour'",
"title_detail": {
"type": "text/plain",
"value": "Teen's Sexual Organ Chopped Off, Eyes Pricked In Pak For 'Honour'",
"language": null,
"base": ""
},
"published": "Wed, 12 Apr 2017 11:53:20 +0530",
"summary": "In a gruesome incident, a 15-year-old boy's sexual organ was chopped off and eyes pricked by the family members of a girl who suspected him of having an illicit relationship with her in Pakistan's...",
"storyimage": "https://i.ndtvimg.com/i/2017-04/crime-scene-istock_240x180_61491978043.jpg",
"video_id": "",
"id": "1680339",
"links": [
{
"type": "text/html",
"href": "http://www.ndtv.com/world-news/teens-sexual-organ-chopped-off-eyes-pricked-in-pak-for-honour-1680339",
"rel": "alternate"
}
],
"source": {
"title": "PTI"
},
"tags": [
{
"scheme": null,
"term": "World",
"label": null
}
],
"fullimage": "https://i.ndtvimg.com/i/2017-04/crime-scene-istock_650x400_61491978029.jpg",
"summary_detail": {
"type": "text/html",
"value": "In a gruesome incident, a 15-year-old boy's sexual organ was chopped off and eyes pricked by the family members of a girl who suspected him of having an illicit relationship with her in Pakistan's...",
"language": null,
"base": ""
}
},
"created_timestamp": "2017-04-12T07:42:55.615817Z",
"modified_timestamp": "2017-04-12T07:42:55.615860Z",
"content_id": "rs_11_1680339_17",
"title": "Teen's Sexual Organ Chopped Off, Eyes Pricked In Pak For 'Honour'",
"content_type": 4,
"image": "",
"description": "In a gruesome incident, a 15-year-old boy's sexual organ was chopped off and eyes pricked by the family members of a girl who suspected him of having an illicit relationship with her in Pakistan's...",
"timestamp": "2017-04-12T06:23:20Z",
"is_deleted": false
}
}
