API RESPONSES+
========
Registration
========
{
"metadata": {
"code": 2001,
"message": "You have successfully registered!"
},
"results": {
"email": "kishor+expert217@atlogys.com",
"verification_code": "392cf7de-188f-46b3-b268-9a423187ec8a"
}
}
API RESPONSES+
========
Resend Email Verification
========
{
"metadata": {
"code": 2042,
"message": "We have resent your email verification instructions."
},
"results": {
"email": "kishor+expert217@atlogys.com",
"verification_code": "392cf7de-188f-46b3-b268-9a423187ec8a"
}
}
API RESPONSES+
========
Login API
========
{
"results": {
"country_code": 1,
"phone_number": "",
"id": 316,
"is_profile_complete": false,
"profile_photo": null,
"is_phone_number_verified": false,
"name": "",
"is_superuser": false,
"display_name": null,
"token": "eyJ0aW1lc3RhbXAiOjE0OTE5MDExNTcuMTU0Mzg4LCJpcF9hZGRyZXNzIjoiNjEuMjQ2LjQ3LjkzIiwidXNlcl9pZCI6MzE2fQ:1cxrdt:I7UW-mB4w6W6A10KxgIWdBl2gEk",
"email": "kishor+expert217@atlogys.com",
"toc_and_privacy_policy_accepted": false
}
}
API RESPONSES+
========
Change Password
========
{
"metadata": {
"code": 2021,
"message": "You have successfully changed your password."
}
}
API RESPONSES+
========
Reset Password
========
{
"metadata": {
"code": 2032,
"message": "Your password has been successfully reset."
}
}
API RESPONSES+
========
Login API
========
{
"errors": {
"non_field_errors": [
{
"code": 1012,
"message": "Incorrect email or password provided.  Please check your information and try again."
}
]
}
}
API RESPONSES+
========
Registration
========
{
"metadata": {
"code": 2001,
"message": "You have successfully registered!"
},
"results": {
"email": "kishor+user217@atlogys.com",
"verification_code": "ce99bc55-0580-4f7f-bf91-6cb3378ec6a7"
}
}
API RESPONSES+
========
Login API
========
{
"results": {
"country_code": 1,
"phone_number": "",
"id": 317,
"is_profile_complete": false,
"profile_photo": null,
"is_phone_number_verified": false,
"name": "",
"is_superuser": false,
"display_name": "",
"token": "eyJ0aW1lc3RhbXAiOjE0OTE5MDExNjMuNTQ4NDM4LCJpcF9hZGRyZXNzIjoiNjEuMjQ2LjQ3LjkzIiwidXNlcl9pZCI6MzE3fQ:1cxrdz:EvgRv1OXS8W4uxH-sJ2iAosaPq0",
"email": "kishor+user217@atlogys.com",
"toc_and_privacy_policy_accepted": false
}
}
API RESPONSES+
========
Register Device
========
{
"results": {
"id": 1153,
"device_type": "ios",
"publisher": {
"channels": [
"user_ch_317",
"device_ch_1153"
],
"subscribe_key": "sub-c-ada7962c-ef5b-11e6-9032-0619f8945a4f"
},
"created_timestamp": "2017-04-11T08:59:24.407393Z",
"modified_timestamp": "2017-04-11T08:59:24.407428Z",
"device_name": "USer device",
"device_sub_type": "sas",
"device_id": "sas",
"device_token": "sas",
"device_os": "sas"
}
}
API RESPONSES+
========
Login API
========
{
"results": {
"country_code": 1,
"phone_number": "",
"id": 316,
"is_profile_complete": false,
"profile_photo": null,
"is_phone_number_verified": false,
"name": "",
"is_superuser": false,
"display_name": null,
"token": "eyJ0aW1lc3RhbXAiOjE0OTE5MDExNjUuMjcxNzIyLCJpcF9hZGRyZXNzIjoiNjEuMjQ2LjQ3LjkzIiwidXNlcl9pZCI6MzE2fQ:1cxre1:Vknv56dVRU-nUkTPtN-Oo27nSg0",
"email": "kishor+expert217@atlogys.com",
"toc_and_privacy_policy_accepted": false
}
}
API RESPONSES+
========
Register Device
========
{
"results": {
"id": 1154,
"device_type": "ios",
"publisher": {
"channels": [
"expert_ch_316",
"device_ch_1154"
],
"subscribe_key": "sub-c-ada7962c-ef5b-11e6-9032-0619f8945a4f"
},
"created_timestamp": "2017-04-11T08:59:26.658422Z",
"modified_timestamp": "2017-04-11T08:59:26.658458Z",
"device_name": "Expert device",
"device_sub_type": "sas",
"device_id": "sas",
"device_token": "sas",
"device_os": "sas"
}
}
API RESPONSES+
========
Login API
========
{
"results": {
"country_code": 1,
"phone_number": "",
"id": 317,
"is_profile_complete": false,
"profile_photo": null,
"is_phone_number_verified": false,
"name": "",
"is_superuser": false,
"display_name": "",
"token": "eyJ0aW1lc3RhbXAiOjE0OTE5MDExNjcuNDk2OTkzLCJpcF9hZGRyZXNzIjoiNjEuMjQ2LjQ3LjkzIiwidXNlcl9pZCI6MzE3fQ:1cxre3:j6O5Ep38CceWCvkZ4GCddSpMxdo",
"email": "kishor+user217@atlogys.com",
"toc_and_privacy_policy_accepted": false
}
}
API RESPONSES+
========
Call initiated by user
========
{
"results": {
"id": 2839,
"expert_profile": 226,
"expert": 172,
"user_device": 1153,
"scheduled_duration": 10
}
}
API RESPONSES+
========
Login API
========
{
"results": {
"country_code": 1,
"phone_number": "",
"id": 316,
"is_profile_complete": false,
"profile_photo": null,
"is_phone_number_verified": false,
"name": "",
"is_superuser": false,
"display_name": null,
"token": "eyJ0aW1lc3RhbXAiOjE0OTE5MDExNjkuMTkyOTI2LCJpcF9hZGRyZXNzIjoiNjEuMjQ2LjQ3LjkzIiwidXNlcl9pZCI6MzE2fQ:1cxre5:qiLE7DNI-4QUyb8ycXKJjZm4bKo",
"email": "kishor+expert217@atlogys.com",
"toc_and_privacy_policy_accepted": false
}
}
API RESPONSES+
========
Accept Call
========
{
"results": {
"data": {
"status": 2,
"seesion_id": "2_MX40NTczMjQ1Mn5-MTQ5MTkwMTE3MDAzM35GbXkyNXFwSmR0dkZhbVNPbEg2ckNFc01-fg",
"call_timeout": 60,
"session_token": "T1==cGFydG5lcl9pZD00NTczMjQ1MiZzaWc9MjExYzE1ZjI3NDhmZTQ5YjE0YTFkZDk4MTc5Y2M5MzFmNzlmNjUzODpzZXNzaW9uX2lkPTJfTVg0ME5UY3pNalExTW41LU1UUTVNVGt3TVRFM01EQXpNMzVHYlhreU5YRndTbVIwZGtaaGJWTlBiRWcyY2tORmMwMS1mZyZjb25uZWN0aW9uX2RhdGE9Tm9uZSZleHBpcmVfdGltZT0xNDkxOTE5MTcwJnJvbGU9cHVibGlzaGVyJmNyZWF0ZV90aW1lPTE0OTE5MDExNzAmbm9uY2U9MzQ0Nzcx",
"expert_device": 1154,
"apiKey": "45732452",
"timestamp": "1491901170"
},
"status": 2
}
}
API RESPONSES+
========
Registration
========
{
"results": {
"email": "kishor+expert259@atlogys.com",
"verification_code": "5d169cb3-9e99-4d7a-be65-d0e5858721be"
},
"metadata": {
"message": "You have successfully registered!",
"code": 2001
}
}
API RESPONSES+
========
Login API
========
{
"results": {
"display_name": null,
"phone_number": "",
"toc_and_privacy_policy_accepted": false,
"id": 350,
"profile_photo": null,
"is_superuser": false,
"token": "eyJ1c2VyX2lkIjozNTAsImlwX2FkZHJlc3MiOiI2MS4yNDYuNDcuOTMiLCJ0aW1lc3RhbXAiOjE0OTE5MTgwMTUuODA0NzI4fQ:1cxw1n:ytVqdZpH1HtqmDA5k5l-cJcJex8",
"country_code": 1,
"name": "",
"is_phone_number_verified": false,
"is_profile_complete": false,
"email": "kishor+expert259@atlogys.com"
}
}
API RESPONSES+
========
Add RSS feed
========
{
"results": {
"message": "Successfull",
"id": 196
}
}
API RESPONSES+
========
Add RSS feed
========
{
"results": {
"message": "Successfull",
"id": 197
}
}
API RESPONSES+
========
Get Social Link
========
{
"metadata": {
"count": 2,
"next": null,
"previous": null
},
"results": [
{
"id": 196,
"created_timestamp": "2017-04-11T13:40:17.431221Z",
"modified_timestamp": "2017-04-11T13:40:17.431255Z",
"feed_type": 4,
"feed_sub_type": 4,
"detail": "https://staff.tumblr.com/rss/",
"display_name": "Tumblr Staff",
"is_deleted": false,
"account": 194
},
{
"id": 197,
"created_timestamp": "2017-04-11T13:40:18.333998Z",
"modified_timestamp": "2017-04-11T13:40:18.334031Z",
"feed_type": 4,
"feed_sub_type": 4,
"detail": "http://feeds.feedburner.com/ndtvnews-world-news",
"display_name": "NDTV News  - World-news",
"is_deleted": false,
"account": 195
}
]
}
API RESPONSES+
========
FeedListing API
========
{
"metadata": {
"count": 40,
"next": "http://api.qa.experchat.com/v1/social/get_feeds/1491918017/?offset=10&limit=10",
"previous": null,
"timestamp": 1491918017,
"offset": 0
},
"results": [
{
"title": "United Airlines Slammed After Passenger Filmed Being Dragged Out Of Plane",
"social_link_id": 197,
"id": "rs_197_1680101_191",
"image": "",
"description": "United Continental Holdings Inc. tumbled early Tuesday as outrage on social media over the removal of a passenger from a flight spread across the globe.",
"content_type": "4",
"timestamp": "2017-04-11T13:05:48Z",
"content": {
"published": "Tue, 11 Apr 2017 18:35:48 +0530",
"video_id": "",
"source": {
"title": "Bloomberg"
},
"published_parsed": [
2017,
4,
11,
13,
5,
48,
1,
101,
0
],
"id": "1680101",
"summary_detail": {
"type": "text/html",
"value": "United Continental Holdings Inc. tumbled early Tuesday as outrage on social media over the removal of a passenger from a flight spread across the globe.",
"base": "",
"language": null
},
"summary": "United Continental Holdings Inc. tumbled early Tuesday as outrage on social media over the removal of a passenger from a flight spread across the globe.",
"links": [
{
"type": "text/html",
"rel": "alternate",
"href": "http://www.ndtv.com/world-news/united-airlines-boss-calls-dragged-passenger-disruptive-and-belligerent-1680101"
}
],
"storyimage": "http://i.ndtvimg.com/i/2017-04/united-airlines-doctor-dragged_240x180_61491849067.jpg",
"updatedat": "April 11, 2017 06:35 PM",
"tags": [
{
"term": "World",
"scheme": null,
"label": null
}
],
"title": "United Airlines Slammed After Passenger Filmed Being Dragged Out Of Plane",
"title_detail": {
"type": "text/plain",
"value": "United Airlines Slammed After Passenger Filmed Being Dragged Out Of Plane",
"base": "",
"language": null
},
"link": "http://www.ndtv.com/world-news/united-airlines-boss-calls-dragged-passenger-disruptive-and-belligerent-1680101",
"guidislink": false,
"fullimage": "http://i.ndtvimg.com/i/2017-04/united-airlines-doctor-dragged_650x400_41491849026.jpg"
}
},
{
"title": "G7 Ministers Look To Persuade Russia To Abandon Syria's Bashar al-Assad",
"social_link_id": 197,
"id": "rs_197_1680072_191",
"image": "",
"description": "Foreign ministers from the Group of Seven (G7) major industrialised nations met in Italy on Monday, looking to put pressure on Russia to break its ties with Syrian President Bashar al-Assad.",
"content_type": "4",
"timestamp": "2017-04-11T12:16:15Z",
"content": {
"published": "Tue, 11 Apr 2017 17:46:15 +0530",
"video_id": "",
"source": {
"title": "Reuters"
},
"published_parsed": [
2017,
4,
11,
12,
16,
15,
1,
101,
0
],
"id": "1680072",
"summary_detail": {
"type": "text/html",
"value": "Foreign ministers from the Group of Seven (G7) major industrialised nations met in Italy on Monday, looking to put pressure on Russia to break its ties with Syrian President Bashar al-Assad.",
"base": "",
"language": null
},
"summary": "Foreign ministers from the Group of Seven (G7) major industrialised nations met in Italy on Monday, looking to put pressure on Russia to break its ties with Syrian President Bashar al-Assad.",
"links": [
{
"type": "text/html",
"rel": "alternate",
"href": "http://www.ndtv.com/world-news/g7-ministers-look-to-persuade-russia-to-abandonsyrias-assad-1680072"
}
],
"storyimage": "http://i.ndtvimg.com/i/2016-04/bashar-al-assad_240x180_81460811713.jpg",
"updatedat": "April 11, 2017 05:46 PM",
"tags": [
{
"term": "World",
"scheme": null,
"label": null
}
],
"title": "G7 Ministers Look To Persuade Russia To Abandon Syria's Bashar al-Assad",
"title_detail": {
"type": "text/plain",
"value": "G7 Ministers Look To Persuade Russia To Abandon Syria's Bashar al-Assad",
"base": "",
"language": null
},
"link": "http://www.ndtv.com/world-news/g7-ministers-look-to-persuade-russia-to-abandonsyrias-assad-1680072",
"guidislink": false,
"fullimage": "http://i.ndtvimg.com/i/2016-04/bashar-al-assad_650x400_81460811731.jpg"
}
},
{
"title": "China Internet Outcry Over United Passenger Fiasco",
"social_link_id": 197,
"id": "rs_197_1680016_191",
"image": "",
"description": "China social media users were in an uproar Tuesday over viral footage of a Chinese-American man dragged off an overbooked United Airlines flight, decrying perceived racism and calling for a boycott.",
"content_type": "4",
"timestamp": "2017-04-11T10:36:29Z",
"content": {
"published": "Tue, 11 Apr 2017 16:06:29 +0530",
"video_id": "",
"source": {
"title": "AFP"
},
"published_parsed": [
2017,
4,
11,
10,
36,
29,
1,
101,
0
],
"id": "1680016",
"summary_detail": {
"type": "text/html",
"value": "China social media users were in an uproar Tuesday over viral footage of a Chinese-American man dragged off an overbooked United Airlines flight, decrying perceived racism and calling for a boycott.",
"base": "",
"language": null
},
"summary": "China social media users were in an uproar Tuesday over viral footage of a Chinese-American man dragged off an overbooked United Airlines flight, decrying perceived racism and calling for a boycott.",
"links": [
{
"type": "text/html",
"rel": "alternate",
"href": "http://www.ndtv.com/world-news/china-internet-outcry-over-united-passenger-fiasco-1680016"
}
],
"storyimage": "https://i.ndtvimg.com/i/2017-04/united-airline_240x180_71491907399.jpg",
"updatedat": "April 11, 2017 04:06 PM",
"tags": [
{
"term": "World",
"scheme": null,
"label": null
}
],
"title": "China Internet Outcry Over United Passenger Fiasco",
"title_detail": {
"type": "text/plain",
"value": "China Internet Outcry Over United Passenger Fiasco",
"base": "",
"language": null
},
"link": "http://www.ndtv.com/world-news/china-internet-outcry-over-united-passenger-fiasco-1680016",
"guidislink": false,
"fullimage": "https://i.ndtvimg.com/i/2017-04/airlines_650x400_51491907614.jpg"
}
},
{
"title": "Doctor Dragged Off Flight Because He Was Asian? Many In China Think So",
"social_link_id": 197,
"id": "rs_197_1680014_191",
"image": "",
"description": "News that a passenger was forcibly dragged off a United Airlines plane has gone viral all over the world, but in China the outrage has been fueled by one uncomfortable fact: The doctor who was pulled...",
"content_type": "4",
"timestamp": "2017-04-11T10:34:16Z",
"content": {
"published": "Tue, 11 Apr 2017 16:04:16 +0530",
"video_id": "",
"source": {
"title": "The Washington Post"
},
"published_parsed": [
2017,
4,
11,
10,
34,
16,
1,
101,
0
],
"id": "1680014",
"summary_detail": {
"type": "text/html",
"value": "News that a passenger was forcibly dragged off a United Airlines plane has gone viral all over the world, but in China the outrage has been fueled by one uncomfortable fact: The doctor who was pulled...",
"base": "",
"language": null
},
"summary": "News that a passenger was forcibly dragged off a United Airlines plane has gone viral all over the world, but in China the outrage has been fueled by one uncomfortable fact: The doctor who was pulled...",
"links": [
{
"type": "text/html",
"rel": "alternate",
"href": "http://www.ndtv.com/world-news/was-that-doctor-dragged-off-united-flight-because-he-was-asian-many-in-china-think-so-1680014"
}
],
"storyimage": "https://drop.ndtv.com/albums/uploadedpics/small1/asian_doctor_dragged_off_united_plane_240_636274966850003188.jpg",
"updatedat": "April 11, 2017 04:04 PM",
"tags": [
{
"term": "World",
"scheme": null,
"label": null
}
],
"title": "Doctor Dragged Off Flight Because He Was Asian? Many In China Think So",
"title_detail": {
"type": "text/plain",
"value": "Doctor Dragged Off Flight Because He Was Asian? Many In China Think So",
"base": "",
"language": null
},
"link": "http://www.ndtv.com/world-news/was-that-doctor-dragged-off-united-flight-because-he-was-asian-many-in-china-think-so-1680014",
"guidislink": false,
"fullimage": "http://i.ndtvimg.com/i/2017-04/united-airlines-doctor-dragged_650x400_41491849026.jpg"
}
},
{
"title": "Stockholm Attack Suspect 'Confesses To Terrorist Crime': Lawyer",
"social_link_id": 197,
"id": "rs_197_1680002_191",
"image": "",
"description": "A 39-year-old Uzbek national suspected of mowing down a crowd of people on a busy Stockholm street in a stolen truck on Tuesday admitted committing \"a terrorist crime,\" his lawyer said.",
"content_type": "4",
"timestamp": "2017-04-11T10:21:15Z",
"content": {
"published": "Tue, 11 Apr 2017 15:51:15 +0530",
"video_id": "",
"source": {
"title": "AFP"
},
"published_parsed": [
2017,
4,
11,
10,
21,
15,
1,
101,
0
],
"id": "1680002",
"summary_detail": {
"type": "text/html",
"value": "A 39-year-old Uzbek national suspected of mowing down a crowd of people on a busy Stockholm street in a stolen truck on Tuesday admitted committing \"a terrorist crime,\" his lawyer said.",
"base": "",
"language": null
},
"summary": "A 39-year-old Uzbek national suspected of mowing down a crowd of people on a busy Stockholm street in a stolen truck on Tuesday admitted committing \"a terrorist crime,\" his lawyer said.",
"links": [
{
"type": "text/html",
"rel": "alternate",
"href": "http://www.ndtv.com/world-news/stockholm-attack-suspect-confesses-to-terrorist-crime-lawyer-1680002"
}
],
"storyimage": "https://i.ndtvimg.com/i/2017-04/truck_240x180_61491913840.jpg",
"updatedat": "April 11, 2017 03:51 PM",
"tags": [
{
"term": "World",
"scheme": null,
"label": null
}
],
"title": "Stockholm Attack Suspect 'Confesses To Terrorist Crime': Lawyer",
"title_detail": {
"type": "text/plain",
"value": "Stockholm Attack Suspect 'Confesses To Terrorist Crime': Lawyer",
"base": "",
"language": null
},
"link": "http://www.ndtv.com/world-news/stockholm-attack-suspect-confesses-to-terrorist-crime-lawyer-1680002",
"guidislink": false,
"fullimage": "http://i.ndtvimg.com/i/2017-04/stockholm-truck-crash-afp_650x400_51491622919.jpg"
}
},
{
"title": "Rex Tillerson Faces Tough Talks In Moscow Amid Increased Tensions",
"social_link_id": 197,
"id": "rs_197_1679975_191",
"image": "",
"description": "United States Secretary of State Rex Tillerson's visit to Moscow this week will be an early test of whether the Trump administration can use any momentum generated by a missile attack on a Syrian air...",
"content_type": "4",
"timestamp": "2017-04-11T09:40:33Z",
"content": {
"published": "Tue, 11 Apr 2017 15:10:33 +0530",
"video_id": "",
"source": {
"title": "Reuters"
},
"published_parsed": [
2017,
4,
11,
9,
40,
33,
1,
101,
0
],
"id": "1679975",
"summary_detail": {
"type": "text/html",
"value": "United States Secretary of State Rex Tillerson's visit to Moscow this week will be an early test of whether the Trump administration can use any momentum generated by a missile attack on a Syrian air...",
"base": "",
"language": null
},
"summary": "United States Secretary of State Rex Tillerson's visit to Moscow this week will be an early test of whether the Trump administration can use any momentum generated by a missile attack on a Syrian air...",
"links": [
{
"type": "text/html",
"rel": "alternate",
"href": "http://www.ndtv.com/world-news/rex-tillerson-faces-tough-talks-in-moscow-amid-increased-tensions-1679975"
}
],
"storyimage": "http://i.ndtvimg.com/i/2016-12/rex-tillerson-exxonmobil-reuters_240x180_71481693277.jpg",
"updatedat": "April 11, 2017 03:10 PM",
"tags": [
{
"term": "World",
"scheme": null,
"label": null
}
],
"title": "Rex Tillerson Faces Tough Talks In Moscow Amid Increased Tensions",
"title_detail": {
"type": "text/plain",
"value": "Rex Tillerson Faces Tough Talks In Moscow Amid Increased Tensions",
"base": "",
"language": null
},
"link": "http://www.ndtv.com/world-news/rex-tillerson-faces-tough-talks-in-moscow-amid-increased-tensions-1679975",
"guidislink": false,
"fullimage": "http://i.ndtvimg.com/i/2016-12/rex-tillerson-exxonmobil-reuters_650x400_41481693289.jpg"
}
},
{
"title": "Father of Maldivian Model Accuses Her Indian Friend Of Murder",
"social_link_id": 197,
"id": "rs_197_1679966_191",
"image": "",
"description": "The father of a Maldivian model who was found dead in her college in Bangladesh last month has accused her best friend, an Indian, of murder.",
"content_type": "4",
"timestamp": "2017-04-11T09:26:21Z",
"content": {
"published": "Tue, 11 Apr 2017 14:56:21 +0530",
"video_id": "",
"source": {
"title": "IANS"
},
"published_parsed": [
2017,
4,
11,
9,
26,
21,
1,
101,
0
],
"id": "1679966",
"summary_detail": {
"type": "text/html",
"value": "The father of a Maldivian model who was found dead in her college in Bangladesh last month has accused her best friend, an Indian, of murder.",
"base": "",
"language": null
},
"summary": "The father of a Maldivian model who was found dead in her college in Bangladesh last month has accused her best friend, an Indian, of murder.",
"links": [
{
"type": "text/html",
"rel": "alternate",
"href": "http://www.ndtv.com/world-news/father-of-maldivian-model-accuses-her-indian-friend-of-murder-1679966"
}
],
"storyimage": "https://i.ndtvimg.com/i/2017-04/raudha-atif-maldivian-model-fb_240x180_61491906325.jpg",
"updatedat": "April 11, 2017 02:56 PM",
"tags": [
{
"term": "World",
"scheme": null,
"label": null
}
],
"title": "Father of Maldivian Model Accuses Her Indian Friend Of Murder",
"title_detail": {
"type": "text/plain",
"value": "Father of Maldivian Model Accuses Her Indian Friend Of Murder",
"base": "",
"language": null
},
"link": "http://www.ndtv.com/world-news/father-of-maldivian-model-accuses-her-indian-friend-of-murder-1679966",
"guidislink": false,
"fullimage": "https://i.ndtvimg.com/i/2017-04/raudha-athif-maldivian-model-fb_650x400_51491906277.jpg"
}
},
{
"title": "Malala Receives Highest United Nations Honour To Promote Girls Education",
"social_link_id": 197,
"id": "rs_197_1679956_191",
"image": "",
"description": "United Nations Secretary-General Antonio Guterres appointed Nobel laureate Malala Yousafzai a United Nations Messenger of Peace on Monday to promote girls education, more than four years after a...",
"content_type": "4",
"timestamp": "2017-04-11T09:16:27Z",
"content": {
"published": "Tue, 11 Apr 2017 14:46:27 +0530",
"video_id": "",
"source": {
"title": "Reuters"
},
"published_parsed": [
2017,
4,
11,
9,
16,
27,
1,
101,
0
],
"id": "1679956",
"summary_detail": {
"type": "text/html",
"value": "United Nations Secretary-General Antonio Guterres appointed Nobel laureate Malala Yousafzai a United Nations Messenger of Peace on Monday to promote girls education, more than four years after a...",
"base": "",
"language": null
},
"summary": "United Nations Secretary-General Antonio Guterres appointed Nobel laureate Malala Yousafzai a United Nations Messenger of Peace on Monday to promote girls education, more than four years after a...",
"links": [
{
"type": "text/html",
"rel": "alternate",
"href": "http://www.ndtv.com/world-news/malala-receives-highest-united-nations-honour-to-promote-girls-education-1679956"
}
],
"storyimage": "https://i.ndtvimg.com/i/2017-04/malala-yousafzai_240x180_51491902049.jpg",
"updatedat": "April 11, 2017 02:46 PM",
"tags": [
{
"term": "World",
"scheme": null,
"label": null
}
],
"title": "Malala Receives Highest United Nations Honour To Promote Girls Education",
"title_detail": {
"type": "text/plain",
"value": "Malala Receives Highest United Nations Honour To Promote Girls Education",
"base": "",
"language": null
},
"link": "http://www.ndtv.com/world-news/malala-receives-highest-united-nations-honour-to-promote-girls-education-1679956",
"guidislink": false,
"fullimage": "https://i.ndtvimg.com/i/2017-04/malala-yousafzai_650x400_61491902022.jpg"
}
},
{
"title": "Chinese Official Demoted For Not Smoking In Front Of Muslims",
"social_link_id": 197,
"id": "rs_197_1679944_191",
"image": "",
"description": "A Chinese official who allegedly declined to smoke in front of Muslims in Xinjiang has been demoted for taking an \"unstable political stance,\" a state-run newspaper reported Tuesday.",
"content_type": "4",
"timestamp": "2017-04-11T08:40:32Z",
"content": {
"published": "Tue, 11 Apr 2017 14:10:32 +0530",
"video_id": "",
"source": {
"title": "AFP"
},
"published_parsed": [
2017,
4,
11,
8,
40,
32,
1,
101,
0
],
"id": "1679944",
"summary_detail": {
"type": "text/html",
"value": "A Chinese official who allegedly declined to smoke in front of Muslims in Xinjiang has been demoted for taking an \"unstable political stance,\" a state-run newspaper reported Tuesday.",
"base": "",
"language": null
},
"summary": "A Chinese official who allegedly declined to smoke in front of Muslims in Xinjiang has been demoted for taking an \"unstable political stance,\" a state-run newspaper reported Tuesday.",
"links": [
{
"type": "text/html",
"rel": "alternate",
"href": "http://www.ndtv.com/world-news/chinese-official-demoted-for-not-smoking-in-front-of-muslims-1679944"
}
],
"storyimage": "http://i.ndtvimg.com/i/2016-04/smoking-cigarette-afp_240x180_61461125833.jpg",
"updatedat": "April 11, 2017 02:10 PM",
"tags": [
{
"term": "World",
"scheme": null,
"label": null
}
],
"title": "Chinese Official Demoted For Not Smoking In Front Of Muslims",
"title_detail": {
"type": "text/plain",
"value": "Chinese Official Demoted For Not Smoking In Front Of Muslims",
"base": "",
"language": null
},
"link": "http://www.ndtv.com/world-news/chinese-official-demoted-for-not-smoking-in-front-of-muslims-1679944",
"guidislink": false,
"fullimage": "http://i.ndtvimg.com/i/2016-04/smoking-cigarette-afp_650x400_71461125874.jpg"
}
},
{
"title": "Your Mobile Phone's Motion Sensors Can Reveal Your PIN, Passwords",
"social_link_id": 197,
"id": "rs_197_1679939_191",
"image": "",
"description": "Hackers can steal your PINs and passwords just from the motion of your phone when you type in the information, warn experts who have unveiled how easy it is for malicious websites and installed apps...",
"content_type": "4",
"timestamp": "2017-04-11T08:28:44Z",
"content": {
"published": "Tue, 11 Apr 2017 13:58:44 +0530",
"video_id": "",
"source": {
"title": "PTI"
},
"published_parsed": [
2017,
4,
11,
8,
28,
44,
1,
101,
0
],
"id": "1679939",
"summary_detail": {
"type": "text/html",
"value": "Hackers can steal your PINs and passwords just from the motion of your phone when you type in the information, warn experts who have unveiled how easy it is for malicious websites and installed apps...",
"base": "",
"language": null
},
"summary": "Hackers can steal your PINs and passwords just from the motion of your phone when you type in the information, warn experts who have unveiled how easy it is for malicious websites and installed apps...",
"links": [
{
"type": "text/html",
"rel": "alternate",
"href": "http://www.ndtv.com/world-news/your-mobile-phones-motion-sensors-can-reveal-your-pin-passwords-1679939"
}
],
"storyimage": "https://i.ndtvimg.com/i/2017-04/mobile-phone-texting-istock_240x180_81491899377.jpg",
"updatedat": "April 11, 2017 01:58 PM",
"tags": [
{
"term": "World",
"scheme": null,
"label": null
}
],
"title": "Your Mobile Phone's Motion Sensors Can Reveal Your PIN, Passwords",
"title_detail": {
"type": "text/plain",
"value": "Your Mobile Phone's Motion Sensors Can Reveal Your PIN, Passwords",
"base": "",
"language": null
},
"link": "http://www.ndtv.com/world-news/your-mobile-phones-motion-sensors-can-reveal-your-pin-passwords-1679939",
"guidislink": false,
"fullimage": "https://i.ndtvimg.com/i/2017-04/mobile-phone-texting-istock_650x400_61491899394.jpg"
}
}
]
}
API RESPONSES+
========
Publish Content API
========
{
"results": {
"id": 289,
"owner": {
"id": 191,
"display_name": "",
"profile_photo": null,
"expert_uid": null,
"avg_rating": "0.00",
"num_rating": 0
},
"tags": [
],
"likes": 0,
"liked_by_current_user": false,
"saved_by_current_user": false,
"description_text": "United Continental Holdings Inc. tumbled early Tuesday as outrage on social media over the removal of a passenger from a flight spread across the globe.",
"description_image": "",
"content": {
"published": "Tue, 11 Apr 2017 18:35:48 +0530",
"video_id": "",
"published_parsed": [
2017,
4,
11,
13,
5,
48,
1,
101,
0
],
"id": "1680101",
"summary_detail": {
"type": "text/html",
"value": "United Continental Holdings Inc. tumbled early Tuesday as outrage on social media over the removal of a passenger from a flight spread across the globe.",
"base": "",
"language": null
},
"summary": "United Continental Holdings Inc. tumbled early Tuesday as outrage on social media over the removal of a passenger from a flight spread across the globe.",
"links": [
{
"type": "text/html",
"rel": "alternate",
"href": "http://www.ndtv.com/world-news/united-airlines-boss-calls-dragged-passenger-disruptive-and-belligerent-1680101"
}
],
"storyimage": "http://i.ndtvimg.com/i/2017-04/united-airlines-doctor-dragged_240x180_61491849067.jpg",
"updatedat": "April 11, 2017 06:35 PM",
"tags": [
{
"term": "World",
"scheme": null,
"label": null
}
],
"title": "United Airlines Slammed After Passenger Filmed Being Dragged Out Of Plane",
"title_detail": {
"type": "text/plain",
"value": "United Airlines Slammed After Passenger Filmed Being Dragged Out Of Plane",
"base": "",
"language": null
},
"source": {
"title": "Bloomberg"
},
"link": "http://www.ndtv.com/world-news/united-airlines-boss-calls-dragged-passenger-disruptive-and-belligerent-1680101",
"guidislink": false,
"fullimage": "http://i.ndtvimg.com/i/2017-04/united-airlines-doctor-dragged_650x400_41491849026.jpg"
},
"created_timestamp": "2017-04-11T13:40:21.698788Z",
"modified_timestamp": "2017-04-11T13:40:21.698831Z",
"content_id": "rs_197_1680101_191",
"title": "United Airlines Slammed After Passenger Filmed Being Dragged Out Of Plane",
"content_type": 4,
"image": "",
"description": "United Continental Holdings Inc. tumbled early Tuesday as outrage on social media over the removal of a passenger from a flight spread across the globe.",
"timestamp": "2017-04-11T13:05:48Z",
"is_deleted": false
}
}
